{
  "project_info": {
    "project_number": "265751521476",
    "firebase_url": "https://talkee-dc198.firebaseio.com",
    "project_id": "talkee-dc198",
    "storage_bucket": "talkee-dc198.appspot.com"
  },
  "client": [
    {
      "client_info": {
        "mobilesdk_app_id": "1:265751521476:android:661a956d5b887f21",
        "android_client_info": {
          "package_name": "infusedigital.talkee"
        }
      },
      "oauth_client": [
        {
          "client_id": "265751521476-q97humfh7enhqq9829a0um3revcs8f7g.apps.googleusercontent.com",
          "client_type": 3
        }
      ],
      "api_key": [
        {
          "current_key": "AIzaSyCp4HlD7wflTqRpk_mnS-GWtbH5dQpSu-Y"
        }
      ],
      "services": {
        "analytics_service": {
          "status": 1
        },
        "appinvite_service": {
          "status": 1,
          "other_platform_oauth_client": []
        },
        "ads_service": {
          "status": 2
        }
      }
    }
  ],
  "configuration_version": "1"
}